[{
  "_id": {
    "$oid": "616c8f661c4f0000fe003742"
  },
  "name": "astin",
  "company_id": "130",
  "password": "$2y$10$HRo4CKvVbuzFGCOu27y1CuZCGz8mGGDFCL3of5Mbl.7qDyvGmEQ0a",
  "updated_at": {
    "$date": "2021-10-17T21:02:30.562Z"
  },
  "created_at": {
    "$date": "2021-10-17T21:02:30.562Z"
  }
},{
  "_id": {
    "$oid": "616d13691c4f0000fe00374a"
  },
  "name": "jojonomic",
  "company_id": "130",
  "password": "$2y$10$ATEeUjLAyl9S1eUO0mh5XetI8AjGMtMSurMn2QnSN3qgdRS82zYzi",
  "updated_at": {
    "$date": "2021-10-18T06:25:45.052Z"
  },
  "created_at": {
    "$date": "2021-10-18T06:25:45.052Z"
  }
},{
  "_id": {
    "$oid": "616d1d451c4f0000fe00374b"
  },
  "name": "user",
  "company_id": "120",
  "password": "$2y$10$dZJ1TpOWI7o0PuDiZAw/a.HsKYE1ncHp87df4OjkBFVjY7bTbbMb6",
  "updated_at": {
    "$date": "2021-10-18T07:07:49.756Z"
  },
  "created_at": {
    "$date": "2021-10-18T07:07:49.756Z"
  }
}]